%YAML 1.1
%TAG !u! tag:unity3d.com,2011:
--- !u!1 &113330
GameObject:
  m_ObjectHideFlags: 0
  m_PrefabParentObject: {fileID: 0}
  m_PrefabInternal: {fileID: 100100000}
  serializedVersion: 5
  m_Component:
  - component: {fileID: 422948}
  - component: {fileID: 21248274}
  - component: {fileID: 6018722}
  m_Layer: 8
  m_Name: Wire
  m_TagString: Untagged
  m_Icon: {fileID: 0}
  m_NavMeshLayer: 0
  m_StaticEditorFlags: 0
  m_IsActive: 1
--- !u!1 &141424
GameObject:
  m_ObjectHideFlags: 0
  m_PrefabParentObject: {fileID: 0}
  m_PrefabInternal: {fileID: 100100000}
  serializedVersion: 5
  m_Component:
  - component: {fileID: 428502}
  - component: {fileID: 11433436}
  - component: {fileID: 5003776}
  m_Layer: 0
  m_Name: Wire
  m_TagString: Obstacle
  m_Icon: {fileID: 0}
  m_NavMeshLayer: 0
  m_StaticEditorFlags: 0
  m_IsActive: 1
--- !u!1 &166066
GameObject:
  m_ObjectHideFlags: 0
  m_PrefabParentObject: {fileID: 0}
  m_PrefabInternal: {fileID: 100100000}
  serializedVersion: 5
  m_Component:
  - component: {fileID: 435346}
  - component: {fileID: 21234382}
  - component: {fileID: 6019132}
  m_Layer: 8
  m_Name: Wire
  m_TagString: Untagged
  m_Icon: {fileID: 0}
  m_NavMeshLayer: 0
  m_StaticEditorFlags: 0
  m_IsActive: 1
--- !u!4 &422948
Transform:
  m_ObjectHideFlags: 1
  m_PrefabParentObject: {fileID: 0}
  m_PrefabInternal: {fileID: 100100000}
  m_GameObject: {fileID: 113330}
  m_LocalRotation: {x: 0, y: 0, z: 0, w: 1}
  m_LocalPosition: {x: 0, y: 0, z: 0}
  m_LocalScale: {x: 1, y: 1, z: 1}
  m_Children: []
  m_Father: {fileID: 428502}
  m_RootOrder: 1
  m_LocalEulerAnglesHint: {x: 0, y: 0, z: 0}
--- !u!4 &428502
Transform:
  m_ObjectHideFlags: 1
  m_PrefabParentObject: {fileID: 0}
  m_PrefabInternal: {fileID: 100100000}
  m_GameObject: {fileID: 141424}
  m_LocalRotation: {x: 0, y: 0, z: 0, w: 1}
  m_LocalPosition: {x: 0, y: 0, z: 0}
  m_LocalScale: {x: 1, y: 1, z: 1}
  m_Children:
  - {fileID: 435346}
  - {fileID: 422948}
  m_Father: {fileID: 0}
  m_RootOrder: 0
  m_LocalEulerAnglesHint: {x: 0, y: 0, z: 0}
--- !u!4 &435346
Transform:
  m_ObjectHideFlags: 1
  m_PrefabParentObject: {fileID: 0}
  m_PrefabInternal: {fileID: 100100000}
  m_GameObject: {fileID: 166066}
  m_LocalRotation: {x: 0, y: 0, z: 0, w: 1}
  m_LocalPosition: {x: 0, y: 0, z: 0}
  m_LocalScale: {x: 1, y: 1, z: 1}
  m_Children: []
  m_Father: {fileID: 428502}
  m_RootOrder: 0
  m_LocalEulerAnglesHint: {x: 0, y: 0, z: 0}
--- !u!50 &5003776
Rigidbody2D:
  serializedVersion: 4
  m_ObjectHideFlags: 1
  m_PrefabParentObject: {fileID: 0}
  m_PrefabInternal: {fileID: 100100000}
  m_GameObject: {fileID: 141424}
  m_BodyType: 1
  m_Simulated: 1
  m_UseFullKinematicContacts: 0
  m_UseAutoMass: 0
  m_Mass: 1
  m_LinearDrag: 0
  m_AngularDrag: 0.05
  m_GravityScale: 1
  m_Material: {fileID: 0}
  m_Interpolate: 0
  m_SleepingMode: 1
  m_CollisionDetection: 0
  m_Constraints: 0
--- !u!60 &6018722
PolygonCollider2D:
  m_ObjectHideFlags: 1
  m_PrefabParentObject: {fileID: 0}
  m_PrefabInternal: {fileID: 100100000}
  m_GameObject: {fileID: 113330}
  m_Enabled: 1
  m_Density: 1
  m_Material: {fileID: 0}
  m_IsTrigger: 1
  m_UsedByEffector: 0
  m_UsedByComposite: 0
  m_Offset: {x: 0, y: 0}
  m_SpriteTilingProperty:
    border: {x: 0, y: 0, z: 0, w: 0}
    pivot: {x: 0.5, y: 0.5}
    oldSize: {x: 5.12, y: 0.25}
    newSize: {x: 1, y: 1}
    adaptiveTilingThreshold: 0.5
    drawMode: 0
    adaptiveTiling: 0
  m_AutoTiling: 0
  m_Points:
    m_Paths:
    - - {x: -1.2752059, y: 0.034176506}
      - {x: -1.2715981, y: 0.036186263}
      - {x: -0.70680386, y: 0.03778432}
      - {x: -0.698402, y: 0.03737257}
      - {x: -0.34360778, y: 0.0057745213}
      - {x: 0.22159806, y: -0.06582351}
      - {x: 0.55561763, y: -0.10582348}
      - {x: 0.8168169, y: -0.12716809}
      - {x: 1.723029, y: -0.12340197}
      - {x: 2.2208238, y: -0.07623527}
      - {x: 2.5272157, y: -0.044637207}
      - {x: 2.56, y: -0.047009796}
      - {x: 2.56, y: 0.03901958}
      - {x: 2.3915977, y: 0.024637211}
      - {x: 2.0931962, y: -0.008970623}
      - {x: 1.706392, y: -0.03417649}
      - {x: 1.5084019, y: -0.04417649}
      - {x: 1.501598, y: -0.0461863}
      - {x: 0.9, y: -0.04458824}
      - {x: 0.8804117, y: -0.04257845}
      - {x: 0.41200975, y: -0.004176489}
      - {x: -0.21319608, y: 0.077421546}
      - {x: -0.69057864, y: 0.12340193}
      - {x: -1.2274559, y: 0.12350126}
      - {x: -1.409602, y: 0.11061763}
      - {x: -1.4831961, y: 0.104225464}
      - {x: -1.6731961, y: 0.08262744}
      - {x: -2.3136077, y: -0.010156907}
      - {x: -2.556392, y: -0.04417647}
      - {x: -2.56, y: -0.04938237}
      - {x: -2.56, y: -0.125}
      - {x: -2.5561962, y: -0.125}
      - {x: -2.2875783, y: -0.087421544}
      - {x: -1.8747941, y: -0.025823511}
      - {x: -1.5539707, y: 0.0109804375}
--- !u!60 &6019132
PolygonCollider2D:
  m_ObjectHideFlags: 1
  m_PrefabParentObject: {fileID: 0}
  m_PrefabInternal: {fileID: 100100000}
  m_GameObject: {fileID: 166066}
  m_Enabled: 1
  m_Density: 1
  m_Material: {fileID: 0}
  m_IsTrigger: 1
  m_UsedByEffector: 0
  m_UsedByComposite: 0
  m_Offset: {x: 0, y: 0}
  m_SpriteTilingProperty:
    border: {x: 0, y: 0, z: 0, w: 0}
    pivot: {x: 0.5, y: 0.5}
    oldSize: {x: 5.12, y: 0.25}
    newSize: {x: 1, y: 1}
    adaptiveTilingThreshold: 0.5
    drawMode: 0
    adaptiveTiling: 0
  m_AutoTiling: 0
  m_Points:
    m_Paths:
    - - {x: 0.10356576, y: -0.0339925}
      - {x: 0.42837214, y: 0.0024417238}
      - {x: 0.5286823, y: 0.016317662}
      - {x: 0.6955038, y: 0.026317641}
      - {x: 0.9838759, y: 0.034379702}
      - {x: 1.318372, y: 0.030193605}
      - {x: 1.7138759, y: -0.005620297}
      - {x: 2.262248, y: -0.07368234}
      - {x: 2.3095431, y: -0.08071563}
      - {x: 2.3516278, y: -0.08949623}
      - {x: 2.5141861, y: -0.111434214}
      - {x: 2.5403101, y: -0.111434214}
      - {x: 2.5425582, y: -0.101434216}
      - {x: 2.5483723, y: -0.034689836}
      - {x: 2.4851167, y: -0.020503737}
      - {x: 2.3470542, y: -0.0005037617}
      - {x: 1.836124, y: 0.06368232}
      - {x: 1.65, y: 0.083682336}
      - {x: 1.2585282, y: 0.115310155}
      - {x: 0.611938, y: 0.10368235}
      - {x: 0.2922481, y: 0.07368232}
      - {x: -0.594186, y: -0.024379682}
      - {x: -0.776124, y: -0.038255643}
      - {x: -1.16, y: -0.03275188}
      - {x: -1.17, y: -0.03244172}
      - {x: -1.363876, y: -0.0301936}
      - {x: -1.5938758, y: -0.008255643}
      - {x: -2.12, y: 0.06562027}
      - {x: -2.5554247, y: 0.125}
      - {x: -2.56, y: 0.125}
      - {x: -2.56, y: 0.054379724}
      - {x: -2.557752, y: 0.0443797}
      - {x: -2.354186, y: 0.014379679}
      - {x: -2.0922482, y: -0.029496253}
      - {x: -1.7199999, y: -0.0756203}
      - {x: -1.42, y: -0.10755826}
      - {x: -0.7573627, y: -0.12112407}
      - {x: -0.3496898, y: -0.08562029}
      - {x: -0.073875874, y: -0.053992495}
--- !u!114 &11433436
MonoBehaviour:
  m_ObjectHideFlags: 1
  m_PrefabParentObject: {fileID: 0}
  m_PrefabInternal: {fileID: 100100000}
  m_GameObject: {fileID: 141424}
  m_Enabled: 1
  m_EditorHideFlags: 0
  m_Script: {fileID: 11500000, guid: 2194ec7e0fcfdc041a4da04f74170726, type: 3}
  m_Name: 
  m_EditorClassIdentifier: 
--- !u!212 &21234382
SpriteRenderer:
  m_ObjectHideFlags: 1
  m_PrefabParentObject: {fileID: 0}
  m_PrefabInternal: {fileID: 100100000}
  m_GameObject: {fileID: 166066}
  m_Enabled: 1
  m_CastShadows: 0
  m_ReceiveShadows: 0
  m_MotionVectors: 1
  m_LightProbeUsage: 0
  m_ReflectionProbeUsage: 0
  m_Materials:
  - {fileID: 10754, guid: 0000000000000000f000000000000000, type: 0}
  m_StaticBatchInfo:
    firstSubMesh: 0
    subMeshCount: 0
  m_StaticBatchRoot: {fileID: 0}
  m_ProbeAnchor: {fileID: 0}
  m_LightProbeVolumeOverride: {fileID: 0}
  m_ScaleInLightmap: 1
  m_PreserveUVs: 0
  m_IgnoreNormalsForChartDetection: 0
  m_ImportantGI: 0
  m_SelectedEditorRenderState: 0
  m_MinimumChartSize: 4
  m_AutoUVMaxDistance: 0.5
  m_AutoUVMaxAngle: 89
  m_LightmapParameters: {fileID: 0}
  m_SortingLayerID: 0
  m_SortingLayer: 0
  m_SortingOrder: 0
  m_Sprite: {fileID: 21300000, guid: d6664d53b2cb0ad4f886e561cf5982cc, type: 3}
  m_Color: {r: 1, g: 1, b: 1, a: 1}
  m_FlipX: 0
  m_FlipY: 0
  m_DrawMode: 0
  m_Size: {x: 1, y: 1}
  m_AdaptiveModeThreshold: 0.5
  m_SpriteTileMode: 0
  m_WasSpriteAssigned: 1
--- !u!212 &21248274
SpriteRenderer:
  m_ObjectHideFlags: 1
  m_PrefabParentObject: {fileID: 0}
  m_PrefabInternal: {fileID: 100100000}
  m_GameObject: {fileID: 113330}
  m_Enabled: 1
  m_CastShadows: 0
  m_ReceiveShadows: 0
  m_MotionVectors: 1
  m_LightProbeUsage: 0
  m_ReflectionProbeUsage: 0
  m_Materials:
  - {fileID: 10754, guid: 0000000000000000f000000000000000, type: 0}
  m_StaticBatchInfo:
    firstSubMesh: 0
    subMeshCount: 0
  m_StaticBatchRoot: {fileID: 0}
  m_ProbeAnchor: {fileID: 0}
  m_LightProbeVolumeOverride: {fileID: 0}
  m_ScaleInLightmap: 1
  m_PreserveUVs: 0
  m_IgnoreNormalsForChartDetection: 0
  m_ImportantGI: 0
  m_SelectedEditorRenderState: 0
  m_MinimumChartSize: 4
  m_AutoUVMaxDistance: 0.5
  m_AutoUVMaxAngle: 89
  m_LightmapParameters: {fileID: 0}
  m_SortingLayerID: 0
  m_SortingLayer: 0
  m_SortingOrder: 0
  m_Sprite: {fileID: 21300000, guid: 7559472fc02742140a57b20be9e07c0f, type: 3}
  m_Color: {r: 1, g: 1, b: 1, a: 1}
  m_FlipX: 0
  m_FlipY: 0
  m_DrawMode: 0
  m_Size: {x: 1, y: 1}
  m_AdaptiveModeThreshold: 0.5
  m_SpriteTileMode: 0
  m_WasSpriteAssigned: 1
--- !u!1001 &100100000
Prefab:
  m_ObjectHideFlags: 1
  serializedVersion: 2
  m_Modification:
    m_TransformParent: {fileID: 0}
    m_Modifications: []
    m_RemovedComponents: []
  m_ParentPrefab: {fileID: 0}
  m_RootGameObject: {fileID: 141424}
  m_IsPrefabParent: 1
